"This is a loose and non-formal collection of apps which are not added to the main list yet, because they are not in a usable state, are still in planning stage or wait to be transfered to the other list",,,,,,,,,,,,,,
Roger Router,https://gitlab.com/tabos/rogerrouter,https://tabos.gitlab.io/project/rogerrouter/,,GNU GPLv2,,Roger Router is a utility to control and monitor AVM Fritz!Box Routers.,https://gitlab.com/tabos/rogerrouter,,,,,GTK,,
MedOS-kirigami,https://github.com/milohr/medOS-kirigami,,,not specified,,implementation for the community API for medOS group,https://github.com/milohr/medOS-kirigami,,,,,,,
clan,https://github.com/mauikit/clan,,,,,,,,,,,,,
cinema,https://github.com/mauikit/cinema,,,,,,,,,,,,,
test-pictures,https://source.puri.sm/heather.ellsworth/test-pictures,,,,,,,,,,,,,
Notes,,,,,,,,,,,,"Gtk, libhandy",,
Todo,,,,,,,,,,,,,,
Liri Shell,https://github.com/lirios/shell,,,,,,,,,,,,,
Liri Screencast,https://github.com/lirios/screencast,,,,,,,,,,,,,
Liri Screenshot,https://github.com/lirios/screenshot,,,,,,,,,,,,,
Liri Player,https://github.com/lirios/player,,,,,,,,,,,,,
Liri music,https://github.com/lirios/music,,,,,,,,,,,,,
Liri Settings,https://github.com/lirios/settings,,,,,,,,,,,,,
Liri NetworkManager,https://github.com/lirios/networkmanager,,,,,,,,,,,,,
Liri App Center,https://github.com/lirios/appcenter,,,,,,,,,,,,,
OwnCloud Sync,https://open-store.io/app/owncloud-sync,,,,,,,,,,,,,
glTron,https://github.com/Chluverman/android-gltron,http://www.gltron.org/screenshots.php,,,,,,,,,,,,
Seafood Berserker,,,,,,,,,,,,,,
Music,https://wiki.gnome.org/Apps/Music,https://tchncs.de/_matrix/media/v1/download/talk.puri.sm/wDbVJsNtmaLUljbuxVVzRRhf,https://matrix.to/#/!BSqRHgvCtIsGittkBG:talk.puri.sm/$154671030040901wjSBE:talk.puri.sm?via=talk.puri.sm&via=matrix.org&via=disroot.org&via=tchncs.de,,,,,,,,,,,
Podcast,https://wiki.gnome.org/Apps/Podcasts,https://matrix.to/#/!BSqRHgvCtIsGittkBG:talk.puri.sm/$15345936875079BeTZO:disroot.org?via=talk.puri.sm&via=matrix.org&via=disroot.org&via=tchncs.de,,,,,,,,,,,,
GdxDemo3D,https://github.com/jsjolund/GdxDemo3D,,,,,,,,,,,,,
robotfindskitten,http://robotfindskitten.org/,,,,,,,,,,,,,
portable puzzle collection,https://www.chiark.greenend.org.uk/~sgtatham/puzzles/,https://chris.boyle.name/projects/android-puzzles/,https://play.google.com/store/apps/details?id=name.boyle.chris.sgtpuzzles,https://github.com/chrisboyle/sgtpuzzles,,,,,,,,,,
2048,,,,,,,,,,,,,,
Brogue,https://sites.google.com/site/broguegame/,,,,,,,,,,,,,
Dungeon Crawl Stone Soup,http://crawl.develz.org/,,,,,,,,,,,,,
Fish Fillets NG,http://fillets.sourceforge.net/download.php,,,,,,,,,,,,,
Blokinger,https://github.com/vocollapse/Blockinger,,,,,,,,,,,,,
https://opensource.com/life/16/10/12-open-source-games-android,,,,,,,,,,,,,,
http://www.java2s.com/Open-Source/Android_Free_Code/Game/race/index.htm,,,,,,,,,,,,,,
frozenbubble,http://www.frozen-bubble.org/downloads/,http://m.smsbox.ch/pro/frozenbubble,,,,,,,,,,,,
OpenArena,http://openarena.ws/smfnews.php,,,,,,,,,,,,,
GadgetBridge,https://github.com/Freeyourgadget/Gadgetbridge,,,,,,,,,,,,,
Kiwix,,,,,,,,,,,,,,
Linphone,,,,,,,,,,,,,,
https://doc.qt.io/qt-5/qtquick-codesamples.html,,,,,,,,,,,,,,
,,,,,,,,,,,,,,
In planning stage:,,,,,,,,,,,,,,
Kalkyl,https://phabricator.kde.org/M103,,,,,,,,,,,,,
Feed Reader,https://phabricator.kde.org/T9137,,,,,,,,,,,,,
Flashlight,https://phabricator.kde.org/T8961,,,,,,,,,,,,,
QR Code Scanner,https://phabricator.kde.org/T8906,,,,,,,,,,,,,
Compass,https://phabricator.kde.org/T8905,,,,,,,,,,,,,
Clock,https://phabricator.kde.org/T8904,https://gitlab.com/nickre/kirigamiclock,,,,,,,,,,,,
Audio Recorder,https://phabricator.kde.org/T8903,,,,,,,,,,,,,
Calculator,https://phabricator.kde.org/T8900,,,,,,,,,,,,,
Weather,https://phabricator.kde.org/T8901,https://phabricator.kde.org/M129/509/,,,,,,,,,,,,
Konversation 2.0,,,,,,,,,,,,,,
,,,,,,,,,,,,,,
Apps where the sources are not shared yet:,,,,,,,,,,,,,,
Spectral,https://gitlab.com/b0/spectral,https://doc.spectral.encom.eu.org,,GNU GPLv3,chat,"Spectral is a glossy cross-platform client for Matrix, the decentralized communication protocol for instant messaging.",https://gitlab.com/b0/spectral,,,https://gitlab.com/b0/spectral https://matrix.to/#/!XZYWDXBgmeMVpuTXWk:matrix.org/$154963589885UOItH:encom.eu.org?via=encom.eu.org&via=matrix.org&via=matrix.geklautecloud.de,,"QtQuick, soon Kirigami",,Matrix
,https://cgit.kde.org/kirogi.git/tree/,https://cgit.kde.org/websites/kirogi-kde-org.git/tree/,https://matrix.to/#/!YvqYduQPzaDGwkwszY:matrix.org/$15497238015794568aLotT:matrix.org?via=matrix.org&via=tchncs.de&via=fam-ribbers.com,,,,,,,,,,,
,https://fosstodon.org/@EikeHein/101562429977425182,https://fosstodon.org/@EikeHein/101600873499816314,,,,,,,,,,,,
Translator,by Avi Wadhwa in community/librem-5-apps announced,,,,,,,,,,,,,
,,,,,,,,,,,,,,
Apps to be added to apps.csv:,,,,,,,,,,,,,,
Qgis Experimental,https://play.google.com/store/apps/details?id=org.qgis.qgis,,,,,,,,,,,,,
https://pabloalba.github.io/euskal-tower-defense/,,,,,,,,,,,,,,
https://github.com/pabloalba/dragonwars,,,,,,,,,,,,,,
https://github.com/pabloalba/adventures,,,,,,,,,,,,,,
https://github.com/pabloalba/zombierun,,,,,,,,,,,,,,
https://matrix.to/#/!BSqRHgvCtIsGittkBG:talk.puri.sm/$1551463304848070ukdAL:matrix.org?via=talk.puri.sm&via=matrix.org&via=disroot.org,,,,,,,,,,,,,,
https://invent.kde.org/nicolasfella/kstraba,(not active, KTrip is the successor for this),,,,,,,,,,,,
https://invent.kde.org/dkardarakos/kirigami-tutorial,,Only tutorial, include it?,,,,,,,,,,,
https://invent.kde.org/jbbgameich/plasma-mobile-app-template,,Only app template, include it?,,,,,,,,,,,
Kid3.sourceforge.net,,,,,,,,,,,,,,
https://gitlab.com/dimkard/torch,"only for demonstration, was meant to be included in plasma-phone-components",,,,,,,,,,,,,
https://invent.kde.org/kde/plasma-phone-settings,only settings files,,,,,,,,,,,,,
https://dpa.li/temp/console-keyboard.mp4,,find the sources!,,,,,,,,,,,,
https://invidio.us/channel/UC64-PJ-yoF7aJ9pIHWEbrTQ,,,,,,,,,,,,,,
https://invent.kde.org/rohanmaity/plasme-weather-appp,,,,,,,,,,,,,,
https://invent.kde.org/rpatwal/kaccounts-contacts-sink,https://orepoala.home.blog/2019/08/22/making-sinked-contacts-accessible-to-plasma-phonebook-app/,,,,,,,,,,,,,
https://invent.kde.org/rpatwal/kaccounts-contacts-sink-testapp,,,,,,,,,,,,,,
https://binary-factory.kde.org/view/Android/job/konversation-konvi2x_android/,,,,,,,,,,,,,,
https://binary-factory.kde.org/view/Android/job/GCompris_android/,,,,,,,,,,,,,,
https://source.puri.sm/fphemeral/l5_shoppinglist,https://puri.sm/posts/an-interview-with-fphemeral-librem-5-early-adopter/,,,,,,,,,,,,,
https://source.puri.sm/fphemeral/librem5_utils,https://puri.sm/posts/an-interview-with-fphemeral-librem-5-early-adopter/,,,,,,,,,,,,,
Expenses app by fphemeral,still to be released,https://puri.sm/posts/an-interview-with-fphemeral-librem-5-early-adopter/,,,,,,,,,,,,
Briar GTK,https://nico.dorfbrunnen.eu/posts/2019/briar-second-demo/,https://nico.dorfbrunnen.eu/posts/2019/briar-first-demo/,,,,,,,,,,,,
Alligator,https://invent.kde.org/tfella/alligator,,,,,,,,,,,,,
,,,,,,,,,,,,,,
Runs on Librem 5:,,,,,,,,,,,,,,
Solitaire,3,,,,,,,,,,,,,
Gedit( & Apt),2,,,,,,,,,,,,,
Web Browser,0,,,,,,,,,,,,,
Gnome Calculator,3,,,,,,,,,,,,,
GNOME Dicionary,2,,,,,,,,,,,,,
Evince,3-4,,,,,,,,,,,,,
Xournal,4,,,,,,,,,,,,,
"Clock, Stopwatch, Timer",0,,,,,,,,,,,,,
Emacs,CLI,,,,,,,,,,,,,
Password Safe,0,,,,,,,,,,,,,
OpenTTD,3,,,,,,,,,,,,,
GNOME Podcasts,2-3,,,,,,,,,,,,,
,,,,,,,,,,,,,,
,,,,,,,,,,,,,,
Cryptocurrency Tracker,what???s the real name of this app?,,,,,,,,,,,,,
Something a little different,,,,,,,,,,,,,,
GNOME Contacts,0,,,,,,,,,,,,,
Telnet,CLI,,,,,,,,,,,,,
Sudo,CLI,,,,,,,,,,,,,
PureOS Store,,,,,,,,,,,,,,
Lollypop,,,,,,,,,,,,,,
DOSBox,,,,,,,,,,,,,,
GNOME Disk Utility,,,,,,,,,,,,,,
July Librem 5 Update,,,,,,,,,,,,,,
Eye of GNOME,,,,,,,,,,,,,,
Apache,CLI,,,,,,,,,,,,,
GNOME File Open Dialog,,,,,,,,,,,,,,
Yelp,,,,,,,,,,,,,,
Help ???,,,,,,,,,,,,,,
,,,,,,,,,,,,,,
Sources for apps to be included:,,,,,,,,,,,,,,
https://binary-factory.kde.org/view/Android/,28 apps (02.03.2020),,,,,,,,,,,,,
https://www.youtube.com/channel/UCIVaIdjtr6aNPdTm-JNbFAg/videos,,,,,,,,,,,,,,
https://www.youtube.com/watch?v=K4OfNFis--g,,,,,,,,,,,,,,
https://puri.sm/posts/what-is-mobile-pureos/,,,,,,,,,,,,,,
https://source.puri.sm/Librem5/community-wiki/-/wikis/List-of-Apps-in-Development,,,,,,,,,,,,,,
